^D:\DOCUMENTS\SUMMERPROJECT2015\SOURCE\STDAFX.CPP
/c /I..\external\SFML\include /I../include/ /I../external/ /ZI /nologo /W3 /WX- /sdl /Od /Oy- /D WIN32 /D _DEBUG /D _CONSOLE /D _LIB /D _UNICODE /D UNICODE /Gm /EHsc /RTC1 /MDd /GS /fp:precise /Zc:wchar_t /Zc:forScope /Yc"stdafx.h" /Fp"../BUILD/DEBUG/SUMMERPROJECT201532.DEBUG.PCH" /Fo"../BUILD/DEBUG/" /Fd"../BUILD/DEBUG/VC120.PDB" /Gd /TP /analyze- D:\DOCUMENTS\SUMMERPROJECT2015\SOURCE\STDAFX.CPP
^D:\DOCUMENTS\SUMMERPROJECT2015\SOURCE\ABSTRACTSTATE.CPP
/c /I..\external\SFML\include /I../include/ /I../external/ /ZI /nologo /W3 /WX- /sdl /Od /Oy- /D WIN32 /D _DEBUG /D _CONSOLE /D _LIB /D _UNICODE /D UNICODE /Gm /EHsc /RTC1 /MDd /GS /fp:precise /Zc:wchar_t /Zc:forScope /Yu"stdafx.h" /Fp"../BUILD/DEBUG/SUMMERPROJECT201532.DEBUG.PCH" /Fo"../BUILD/DEBUG/" /Fd"../BUILD/DEBUG/VC120.PDB" /Gd /TP /analyze- D:\DOCUMENTS\SUMMERPROJECT2015\SOURCE\ABSTRACTSTATE.CPP
^D:\DOCUMENTS\SUMMERPROJECT2015\SOURCE\ACTION.CPP
/c /I..\external\SFML\include /I../include/ /I../external/ /ZI /nologo /W3 /WX- /sdl /Od /Oy- /D WIN32 /D _DEBUG /D _CONSOLE /D _LIB /D _UNICODE /D UNICODE /Gm /EHsc /RTC1 /MDd /GS /fp:precise /Zc:wchar_t /Zc:forScope /Yu"stdafx.h" /Fp"../BUILD/DEBUG/SUMMERPROJECT201532.DEBUG.PCH" /Fo"../BUILD/DEBUG/" /Fd"../BUILD/DEBUG/VC120.PDB" /Gd /TP /analyze- D:\DOCUMENTS\SUMMERPROJECT2015\SOURCE\ACTION.CPP
^D:\DOCUMENTS\SUMMERPROJECT2015\SOURCE\ANIMATEDSPRITE.CPP
/c /I..\external\SFML\include /I../include/ /I../external/ /ZI /nologo /W3 /WX- /sdl /Od /Oy- /D WIN32 /D _DEBUG /D _CONSOLE /D _LIB /D _UNICODE /D UNICODE /Gm /EHsc /RTC1 /MDd /GS /fp:precise /Zc:wchar_t /Zc:forScope /Yu"stdafx.h" /Fp"../BUILD/DEBUG/SUMMERPROJECT201532.DEBUG.PCH" /Fo"../BUILD/DEBUG/" /Fd"../BUILD/DEBUG/VC120.PDB" /Gd /TP /analyze- D:\DOCUMENTS\SUMMERPROJECT2015\SOURCE\ANIMATEDSPRITE.CPP
^D:\DOCUMENTS\SUMMERPROJECT2015\SOURCE\ANIMATION.CPP
/c /I..\external\SFML\include /I../include/ /I../external/ /ZI /nologo /W3 /WX- /sdl /Od /Oy- /D WIN32 /D _DEBUG /D _CONSOLE /D _LIB /D _UNICODE /D UNICODE /Gm /EHsc /RTC1 /MDd /GS /fp:precise /Zc:wchar_t /Zc:forScope /Yu"stdafx.h" /Fp"../BUILD/DEBUG/SUMMERPROJECT201532.DEBUG.PCH" /Fo"../BUILD/DEBUG/" /Fd"../BUILD/DEBUG/VC120.PDB" /Gd /TP /analyze- D:\DOCUMENTS\SUMMERPROJECT2015\SOURCE\ANIMATION.CPP
^D:\DOCUMENTS\SUMMERPROJECT2015\SOURCE\ANIMATIONMANAGER.CPP
/c /I..\external\SFML\include /I../include/ /I../external/ /ZI /nologo /W3 /WX- /sdl /Od /Oy- /D WIN32 /D _DEBUG /D _CONSOLE /D _LIB /D _UNICODE /D UNICODE /Gm /EHsc /RTC1 /MDd /GS /fp:precise /Zc:wchar_t /Zc:forScope /Yu"stdafx.h" /Fp"../BUILD/DEBUG/SUMMERPROJECT201532.DEBUG.PCH" /Fo"../BUILD/DEBUG/" /Fd"../BUILD/DEBUG/VC120.PDB" /Gd /TP /analyze- D:\DOCUMENTS\SUMMERPROJECT2015\SOURCE\ANIMATIONMANAGER.CPP
^D:\DOCUMENTS\SUMMERPROJECT2015\SOURCE\ATTACK.CPP
/c /I..\external\SFML\include /I../include/ /I../external/ /ZI /nologo /W3 /WX- /sdl /Od /Oy- /D WIN32 /D _DEBUG /D _CONSOLE /D _LIB /D _UNICODE /D UNICODE /Gm /EHsc /RTC1 /MDd /GS /fp:precise /Zc:wchar_t /Zc:forScope /Yu"stdafx.h" /Fp"../BUILD/DEBUG/SUMMERPROJECT201532.DEBUG.PCH" /Fo"../BUILD/DEBUG/" /Fd"../BUILD/DEBUG/VC120.PDB" /Gd /TP /analyze- D:\DOCUMENTS\SUMMERPROJECT2015\SOURCE\ATTACK.CPP
^D:\DOCUMENTS\SUMMERPROJECT2015\SOURCE\AUDIOMANAGER.CPP
/c /I..\external\SFML\include /I../include/ /I../external/ /ZI /nologo /W3 /WX- /sdl /Od /Oy- /D WIN32 /D _DEBUG /D _CONSOLE /D _LIB /D _UNICODE /D UNICODE /Gm /EHsc /RTC1 /MDd /GS /fp:precise /Zc:wchar_t /Zc:forScope /Yu"stdafx.h" /Fp"../BUILD/DEBUG/SUMMERPROJECT201532.DEBUG.PCH" /Fo"../BUILD/DEBUG/" /Fd"../BUILD/DEBUG/VC120.PDB" /Gd /TP /analyze- D:\DOCUMENTS\SUMMERPROJECT2015\SOURCE\AUDIOMANAGER.CPP
^D:\DOCUMENTS\SUMMERPROJECT2015\SOURCE\BOSS.CPP
/c /I..\external\SFML\include /I../include/ /I../external/ /ZI /nologo /W3 /WX- /sdl /Od /Oy- /D WIN32 /D _DEBUG /D _CONSOLE /D _LIB /D _UNICODE /D UNICODE /Gm /EHsc /RTC1 /MDd /GS /fp:precise /Zc:wchar_t /Zc:forScope /Yu"stdafx.h" /Fp"../BUILD/DEBUG/SUMMERPROJECT201532.DEBUG.PCH" /Fo"../BUILD/DEBUG/" /Fd"../BUILD/DEBUG/VC120.PDB" /Gd /TP /analyze- D:\DOCUMENTS\SUMMERPROJECT2015\SOURCE\BOSS.CPP
^D:\DOCUMENTS\SUMMERPROJECT2015\SOURCE\BOSSBAR.CPP
/c /I..\external\SFML\include /I../include/ /I../external/ /ZI /nologo /W3 /WX- /sdl /Od /Oy- /D WIN32 /D _DEBUG /D _CONSOLE /D _LIB /D _UNICODE /D UNICODE /Gm /EHsc /RTC1 /MDd /GS /fp:precise /Zc:wchar_t /Zc:forScope /Yu"stdafx.h" /Fp"../BUILD/DEBUG/SUMMERPROJECT201532.DEBUG.PCH" /Fo"../BUILD/DEBUG/" /Fd"../BUILD/DEBUG/VC120.PDB" /Gd /TP /analyze- D:\DOCUMENTS\SUMMERPROJECT2015\SOURCE\BOSSBAR.CPP
^D:\DOCUMENTS\SUMMERPROJECT2015\SOURCE\BOSSHPBAR.CPP
/c /I..\external\SFML\include /I../include/ /I../external/ /ZI /nologo /W3 /WX- /sdl /Od /Oy- /D WIN32 /D _DEBUG /D _CONSOLE /D _LIB /D _UNICODE /D UNICODE /Gm /EHsc /RTC1 /MDd /GS /fp:precise /Zc:wchar_t /Zc:forScope /Yu"stdafx.h" /Fp"../BUILD/DEBUG/SUMMERPROJECT201532.DEBUG.PCH" /Fo"../BUILD/DEBUG/" /Fd"../BUILD/DEBUG/VC120.PDB" /Gd /TP /analyze- D:\DOCUMENTS\SUMMERPROJECT2015\SOURCE\BOSSHPBAR.CPP
^D:\DOCUMENTS\SUMMERPROJECT2015\SOURCE\COLLIDER.CPP
/c /I..\external\SFML\include /I../include/ /I../external/ /ZI /nologo /W3 /WX- /sdl /Od /Oy- /D WIN32 /D _DEBUG /D _CONSOLE /D _LIB /D _UNICODE /D UNICODE /Gm /EHsc /RTC1 /MDd /GS /fp:precise /Zc:wchar_t /Zc:forScope /Yu"stdafx.h" /Fp"../BUILD/DEBUG/SUMMERPROJECT201532.DEBUG.PCH" /Fo"../BUILD/DEBUG/" /Fd"../BUILD/DEBUG/VC120.PDB" /Gd /TP /analyze- D:\DOCUMENTS\SUMMERPROJECT2015\SOURCE\COLLIDER.CPP
^D:\DOCUMENTS\SUMMERPROJECT2015\SOURCE\COLLISIONMANAGER.CPP
/c /I..\external\SFML\include /I../include/ /I../external/ /ZI /nologo /W3 /WX- /sdl /Od /Oy- /D WIN32 /D _DEBUG /D _CONSOLE /D _LIB /D _UNICODE /D UNICODE /Gm /EHsc /RTC1 /MDd /GS /fp:precise /Zc:wchar_t /Zc:forScope /Yu"stdafx.h" /Fp"../BUILD/DEBUG/SUMMERPROJECT201532.DEBUG.PCH" /Fo"../BUILD/DEBUG/" /Fd"../BUILD/DEBUG/VC120.PDB" /Gd /TP /analyze- D:\DOCUMENTS\SUMMERPROJECT2015\SOURCE\COLLISIONMANAGER.CPP
^D:\DOCUMENTS\SUMMERPROJECT2015\SOURCE\DRAWMANAGER.CPP
/c /I..\external\SFML\include /I../include/ /I../external/ /ZI /nologo /W3 /WX- /sdl /Od /Oy- /D WIN32 /D _DEBUG /D _CONSOLE /D _LIB /D _UNICODE /D UNICODE /Gm /EHsc /RTC1 /MDd /GS /fp:precise /Zc:wchar_t /Zc:forScope /Yu"stdafx.h" /Fp"../BUILD/DEBUG/SUMMERPROJECT201532.DEBUG.PCH" /Fo"../BUILD/DEBUG/" /Fd"../BUILD/DEBUG/VC120.PDB" /Gd /TP /analyze- D:\DOCUMENTS\SUMMERPROJECT2015\SOURCE\DRAWMANAGER.CPP
^D:\DOCUMENTS\SUMMERPROJECT2015\SOURCE\ENEMY.CPP
/c /I..\external\SFML\include /I../include/ /I../external/ /ZI /nologo /W3 /WX- /sdl /Od /Oy- /D WIN32 /D _DEBUG /D _CONSOLE /D _LIB /D _UNICODE /D UNICODE /Gm /EHsc /RTC1 /MDd /GS /fp:precise /Zc:wchar_t /Zc:forScope /Yu"stdafx.h" /Fp"../BUILD/DEBUG/SUMMERPROJECT201532.DEBUG.PCH" /Fo"../BUILD/DEBUG/" /Fd"../BUILD/DEBUG/VC120.PDB" /Gd /TP /analyze- D:\DOCUMENTS\SUMMERPROJECT2015\SOURCE\ENEMY.CPP
^D:\DOCUMENTS\SUMMERPROJECT2015\SOURCE\ENEMYSPAWNER.CPP
/c /I..\external\SFML\include /I../include/ /I../external/ /ZI /nologo /W3 /WX- /sdl /Od /Oy- /D WIN32 /D _DEBUG /D _CONSOLE /D _LIB /D _UNICODE /D UNICODE /Gm /EHsc /RTC1 /MDd /GS /fp:precise /Zc:wchar_t /Zc:forScope /Yu"stdafx.h" /Fp"../BUILD/DEBUG/SUMMERPROJECT201532.DEBUG.PCH" /Fo"../BUILD/DEBUG/" /Fd"../BUILD/DEBUG/VC120.PDB" /Gd /TP /analyze- D:\DOCUMENTS\SUMMERPROJECT2015\SOURCE\ENEMYSPAWNER.CPP
^D:\DOCUMENTS\SUMMERPROJECT2015\SOURCE\ENGINE.CPP
/c /I..\external\SFML\include /I../include/ /I../external/ /ZI /nologo /W3 /WX- /sdl /Od /Oy- /D WIN32 /D _DEBUG /D _CONSOLE /D _LIB /D _UNICODE /D UNICODE /Gm /EHsc /RTC1 /MDd /GS /fp:precise /Zc:wchar_t /Zc:forScope /Yu"stdafx.h" /Fp"../BUILD/DEBUG/SUMMERPROJECT201532.DEBUG.PCH" /Fo"../BUILD/DEBUG/" /Fd"../BUILD/DEBUG/VC120.PDB" /Gd /TP /analyze- D:\DOCUMENTS\SUMMERPROJECT2015\SOURCE\ENGINE.CPP
^D:\DOCUMENTS\SUMMERPROJECT2015\SOURCE\GAMEEND.CPP
/c /I..\external\SFML\include /I../include/ /I../external/ /ZI /nologo /W3 /WX- /sdl /Od /Oy- /D WIN32 /D _DEBUG /D _CONSOLE /D _LIB /D _UNICODE /D UNICODE /Gm /EHsc /RTC1 /MDd /GS /fp:precise /Zc:wchar_t /Zc:forScope /Yu"stdafx.h" /Fp"../BUILD/DEBUG/SUMMERPROJECT201532.DEBUG.PCH" /Fo"../BUILD/DEBUG/" /Fd"../BUILD/DEBUG/VC120.PDB" /Gd /TP /analyze- D:\DOCUMENTS\SUMMERPROJECT2015\SOURCE\GAMEEND.CPP
^D:\DOCUMENTS\SUMMERPROJECT2015\SOURCE\GAMESTATE.CPP
/c /I..\external\SFML\include /I../include/ /I../external/ /ZI /nologo /W3 /WX- /sdl /Od /Oy- /D WIN32 /D _DEBUG /D _CONSOLE /D _LIB /D _UNICODE /D UNICODE /Gm /EHsc /RTC1 /MDd /GS /fp:precise /Zc:wchar_t /Zc:forScope /Yu"stdafx.h" /Fp"../BUILD/DEBUG/SUMMERPROJECT201532.DEBUG.PCH" /Fo"../BUILD/DEBUG/" /Fd"../BUILD/DEBUG/VC120.PDB" /Gd /TP /analyze- D:\DOCUMENTS\SUMMERPROJECT2015\SOURCE\GAMESTATE.CPP
^D:\DOCUMENTS\SUMMERPROJECT2015\SOURCE\HPBAR.CPP
/c /I..\external\SFML\include /I../include/ /I../external/ /ZI /nologo /W3 /WX- /sdl /Od /Oy- /D WIN32 /D _DEBUG /D _CONSOLE /D _LIB /D _UNICODE /D UNICODE /Gm /EHsc /RTC1 /MDd /GS /fp:precise /Zc:wchar_t /Zc:forScope /Yu"stdafx.h" /Fp"../BUILD/DEBUG/SUMMERPROJECT201532.DEBUG.PCH" /Fo"../BUILD/DEBUG/" /Fd"../BUILD/DEBUG/VC120.PDB" /Gd /TP /analyze- D:\DOCUMENTS\SUMMERPROJECT2015\SOURCE\HPBAR.CPP
^D:\DOCUMENTS\SUMMERPROJECT2015\SOURCE\INFO.CPP
/c /I..\external\SFML\include /I../include/ /I../external/ /ZI /nologo /W3 /WX- /sdl /Od /Oy- /D WIN32 /D _DEBUG /D _CONSOLE /D _LIB /D _UNICODE /D UNICODE /Gm /EHsc /RTC1 /MDd /GS /fp:precise /Zc:wchar_t /Zc:forScope /Yu"stdafx.h" /Fp"../BUILD/DEBUG/SUMMERPROJECT201532.DEBUG.PCH" /Fo"../BUILD/DEBUG/" /Fd"../BUILD/DEBUG/VC120.PDB" /Gd /TP /analyze- D:\DOCUMENTS\SUMMERPROJECT2015\SOURCE\INFO.CPP
^D:\DOCUMENTS\SUMMERPROJECT2015\SOURCE\INPUTMANAGER.CPP
/c /I..\external\SFML\include /I../include/ /I../external/ /ZI /nologo /W3 /WX- /sdl /Od /Oy- /D WIN32 /D _DEBUG /D _CONSOLE /D _LIB /D _UNICODE /D UNICODE /Gm /EHsc /RTC1 /MDd /GS /fp:precise /Zc:wchar_t /Zc:forScope /Yu"stdafx.h" /Fp"../BUILD/DEBUG/SUMMERPROJECT201532.DEBUG.PCH" /Fo"../BUILD/DEBUG/" /Fd"../BUILD/DEBUG/VC120.PDB" /Gd /TP /analyze- D:\DOCUMENTS\SUMMERPROJECT2015\SOURCE\INPUTMANAGER.CPP
^D:\DOCUMENTS\SUMMERPROJECT2015\SOURCE\LOOT.CPP
/c /I..\external\SFML\include /I../include/ /I../external/ /ZI /nologo /W3 /WX- /sdl /Od /Oy- /D WIN32 /D _DEBUG /D _CONSOLE /D _LIB /D _UNICODE /D UNICODE /Gm /EHsc /RTC1 /MDd /GS /fp:precise /Zc:wchar_t /Zc:forScope /Yu"stdafx.h" /Fp"../BUILD/DEBUG/SUMMERPROJECT201532.DEBUG.PCH" /Fo"../BUILD/DEBUG/" /Fd"../BUILD/DEBUG/VC120.PDB" /Gd /TP /analyze- D:\DOCUMENTS\SUMMERPROJECT2015\SOURCE\LOOT.CPP
^D:\DOCUMENTS\SUMMERPROJECT2015\SOURCE\MENUBUTTON.CPP
/c /I..\external\SFML\include /I../include/ /I../external/ /ZI /nologo /W3 /WX- /sdl /Od /Oy- /D WIN32 /D _DEBUG /D _CONSOLE /D _LIB /D _UNICODE /D UNICODE /Gm /EHsc /RTC1 /MDd /GS /fp:precise /Zc:wchar_t /Zc:forScope /Yu"stdafx.h" /Fp"../BUILD/DEBUG/SUMMERPROJECT201532.DEBUG.PCH" /Fo"../BUILD/DEBUG/" /Fd"../BUILD/DEBUG/VC120.PDB" /Gd /TP /analyze- D:\DOCUMENTS\SUMMERPROJECT2015\SOURCE\MENUBUTTON.CPP
^D:\DOCUMENTS\SUMMERPROJECT2015\SOURCE\MENUSTATE.CPP
/c /I..\external\SFML\include /I../include/ /I../external/ /ZI /nologo /W3 /WX- /sdl /Od /Oy- /D WIN32 /D _DEBUG /D _CONSOLE /D _LIB /D _UNICODE /D UNICODE /Gm /EHsc /RTC1 /MDd /GS /fp:precise /Zc:wchar_t /Zc:forScope /Yu"stdafx.h" /Fp"../BUILD/DEBUG/SUMMERPROJECT201532.DEBUG.PCH" /Fo"../BUILD/DEBUG/" /Fd"../BUILD/DEBUG/VC120.PDB" /Gd /TP /analyze- D:\DOCUMENTS\SUMMERPROJECT2015\SOURCE\MENUSTATE.CPP
^D:\DOCUMENTS\SUMMERPROJECT2015\SOURCE\PLAYER.CPP
/c /I..\external\SFML\include /I../include/ /I../external/ /ZI /nologo /W3 /WX- /sdl /Od /Oy- /D WIN32 /D _DEBUG /D _CONSOLE /D _LIB /D _UNICODE /D UNICODE /Gm /EHsc /RTC1 /MDd /GS /fp:precise /Zc:wchar_t /Zc:forScope /Yu"stdafx.h" /Fp"../BUILD/DEBUG/SUMMERPROJECT201532.DEBUG.PCH" /Fo"../BUILD/DEBUG/" /Fd"../BUILD/DEBUG/VC120.PDB" /Gd /TP /analyze- D:\DOCUMENTS\SUMMERPROJECT2015\SOURCE\PLAYER.CPP
^D:\DOCUMENTS\SUMMERPROJECT2015\SOURCE\RANDOMIZER.CPP
/c /I..\external\SFML\include /I../include/ /I../external/ /ZI /nologo /W3 /WX- /sdl /Od /Oy- /D WIN32 /D _DEBUG /D _CONSOLE /D _LIB /D _UNICODE /D UNICODE /Gm /EHsc /RTC1 /MDd /GS /fp:precise /Zc:wchar_t /Zc:forScope /Yu"stdafx.h" /Fp"../BUILD/DEBUG/SUMMERPROJECT201532.DEBUG.PCH" /Fo"../BUILD/DEBUG/" /Fd"../BUILD/DEBUG/VC120.PDB" /Gd /TP /analyze- D:\DOCUMENTS\SUMMERPROJECT2015\SOURCE\RANDOMIZER.CPP
^D:\DOCUMENTS\SUMMERPROJECT2015\SOURCE\SHOPITEM.CPP
/c /I..\external\SFML\include /I../include/ /I../external/ /ZI /nologo /W3 /WX- /sdl /Od /Oy- /D WIN32 /D _DEBUG /D _CONSOLE /D _LIB /D _UNICODE /D UNICODE /Gm /EHsc /RTC1 /MDd /GS /fp:precise /Zc:wchar_t /Zc:forScope /Yu"stdafx.h" /Fp"../BUILD/DEBUG/SUMMERPROJECT201532.DEBUG.PCH" /Fo"../BUILD/DEBUG/" /Fd"../BUILD/DEBUG/VC120.PDB" /Gd /TP /analyze- D:\DOCUMENTS\SUMMERPROJECT2015\SOURCE\SHOPITEM.CPP
^D:\DOCUMENTS\SUMMERPROJECT2015\SOURCE\STATEMANAGER.CPP
/c /I..\external\SFML\include /I../include/ /I../external/ /ZI /nologo /W3 /WX- /sdl /Od /Oy- /D WIN32 /D _DEBUG /D _CONSOLE /D _LIB /D _UNICODE /D UNICODE /Gm /EHsc /RTC1 /MDd /GS /fp:precise /Zc:wchar_t /Zc:forScope /Yu"stdafx.h" /Fp"../BUILD/DEBUG/SUMMERPROJECT201532.DEBUG.PCH" /Fo"../BUILD/DEBUG/" /Fd"../BUILD/DEBUG/VC120.PDB" /Gd /TP /analyze- D:\DOCUMENTS\SUMMERPROJECT2015\SOURCE\STATEMANAGER.CPP
^D:\DOCUMENTS\SUMMERPROJECT2015\SOURCE\MAIN.CPP
/c /I..\external\SFML\include /I../include/ /I../external/ /ZI /nologo /W3 /WX- /sdl /Od /Oy- /D WIN32 /D _DEBUG /D _CONSOLE /D _LIB /D _UNICODE /D UNICODE /Gm /EHsc /RTC1 /MDd /GS /fp:precise /Zc:wchar_t /Zc:forScope /Yu"stdafx.h" /Fp"../BUILD/DEBUG/SUMMERPROJECT201532.DEBUG.PCH" /Fo"../BUILD/DEBUG/" /Fd"../BUILD/DEBUG/VC120.PDB" /Gd /TP /analyze- D:\DOCUMENTS\SUMMERPROJECT2015\SOURCE\MAIN.CPP
^D:\DOCUMENTS\SUMMERPROJECT2015\SOURCE\TEXTUREMANAGER.CPP
/c /I..\external\SFML\include /I../include/ /I../external/ /ZI /nologo /W3 /WX- /sdl /Od /Oy- /D WIN32 /D _DEBUG /D _CONSOLE /D _LIB /D _UNICODE /D UNICODE /Gm /EHsc /RTC1 /MDd /GS /fp:precise /Zc:wchar_t /Zc:forScope /Yu"stdafx.h" /Fp"../BUILD/DEBUG/SUMMERPROJECT201532.DEBUG.PCH" /Fo"../BUILD/DEBUG/" /Fd"../BUILD/DEBUG/VC120.PDB" /Gd /TP /analyze- D:\DOCUMENTS\SUMMERPROJECT2015\SOURCE\TEXTUREMANAGER.CPP
^D:\DOCUMENTS\SUMMERPROJECT2015\SOURCE\TOWER.CPP
/c /I..\external\SFML\include /I../include/ /I../external/ /ZI /nologo /W3 /WX- /sdl /Od /Oy- /D WIN32 /D _DEBUG /D _CONSOLE /D _LIB /D _UNICODE /D UNICODE /Gm /EHsc /RTC1 /MDd /GS /fp:precise /Zc:wchar_t /Zc:forScope /Yu"stdafx.h" /Fp"../BUILD/DEBUG/SUMMERPROJECT201532.DEBUG.PCH" /Fo"../BUILD/DEBUG/" /Fd"../BUILD/DEBUG/VC120.PDB" /Gd /TP /analyze- D:\DOCUMENTS\SUMMERPROJECT2015\SOURCE\TOWER.CPP
^D:\DOCUMENTS\SUMMERPROJECT2015\SOURCE\UI.CPP
/c /I..\external\SFML\include /I../include/ /I../external/ /ZI /nologo /W3 /WX- /sdl /Od /Oy- /D WIN32 /D _DEBUG /D _CONSOLE /D _LIB /D _UNICODE /D UNICODE /Gm /EHsc /RTC1 /MDd /GS /fp:precise /Zc:wchar_t /Zc:forScope /Yu"stdafx.h" /Fp"../BUILD/DEBUG/SUMMERPROJECT201532.DEBUG.PCH" /Fo"../BUILD/DEBUG/" /Fd"../BUILD/DEBUG/VC120.PDB" /Gd /TP /analyze- D:\DOCUMENTS\SUMMERPROJECT2015\SOURCE\UI.CPP
